EESchema Schematic File Version 4
EELAYER 30 0
EELAYER END
$Descr A4 11693 8268
encoding utf-8
Sheet 1 2
Title ""
Date ""
Rev ""
Comp ""
Comment1 ""
Comment2 ""
Comment3 ""
Comment4 ""
$EndDescr
$Comp
L FPGA_Lattice:ICE40UP5K-SG48ITR U6
U 1 1 5C8D29D7
P 10550 2850
F 0 "U6" H 10250 3900 50  0000 L CNN
F 1 "ICE40UP5K-SG48ITR" H 10200 1700 50  0000 L CNN
F 2 "Package_DFN_QFN:QFN-48-1EP_7x7mm_P0.5mm_EP5.6x5.6mm" H 10550 1500 50  0001 C CNN
F 3 "http://www.latticesemi.com/Products/FPGAandCPLD/iCE40Ultra" H 10150 3850 50  0001 C CNN
	1    10550 2850
	1    0    0    -1  
$EndComp
$Comp
L FPGA_Lattice:ICE40UP5K-SG48ITR U?
U 4 1 5C8EEEB1
P 8050 1650
AR Path="/5C8D2EF7/5C8EEEB1" Ref="U?"  Part="4" 
AR Path="/5C8EEEB1" Ref="U6"  Part="4" 
F 0 "U6" H 8280 1696 50  0000 L CNN
F 1 "ICE40UP5K-SG48ITR" H 8280 1605 50  0000 L CNN
F 2 "Package_DFN_QFN:QFN-48-1EP_7x7mm_P0.5mm_EP5.6x5.6mm" H 8050 300 50  0001 C CNN
F 3 "http://www.latticesemi.com/Products/FPGAandCPLD/iCE40Ultra" H 7650 2650 50  0001 C CNN
	4    8050 1650
	1    0    0    -1  
$EndComp
$Comp
L power:GND #PWR?
U 1 1 5C8EEEB8
P 8050 2050
AR Path="/5C8D2EF7/5C8EEEB8" Ref="#PWR?"  Part="1" 
AR Path="/5C8EEEB8" Ref="#PWR028"  Part="1" 
F 0 "#PWR028" H 8050 1800 50  0001 C CNN
F 1 "GND" H 8055 1877 50  0000 C CNN
F 2 "" H 8050 2050 50  0001 C CNN
F 3 "" H 8050 2050 50  0001 C CNN
	1    8050 2050
	1    0    0    -1  
$EndComp
$Comp
L Device:R R?
U 1 1 5C8EEEBF
P 8150 1050
AR Path="/5C8D2EF7/5C8EEEBF" Ref="R?"  Part="1" 
AR Path="/5C8EEEBF" Ref="R4"  Part="1" 
F 0 "R4" H 8220 1096 50  0000 L CNN
F 1 "100" H 8220 1005 50  0000 L CNN
F 2 "Resistor_SMD:R_0603_1608Metric" V 8080 1050 50  0001 C CNN
F 3 "~" H 8150 1050 50  0001 C CNN
	1    8150 1050
	1    0    0    -1  
$EndComp
Wire Wire Line
	8150 1250 8150 1200
Wire Wire Line
	8050 1250 8050 800 
Wire Wire Line
	8050 800  8150 800 
Wire Wire Line
	8150 900  8150 800 
Wire Wire Line
	7950 1250 7950 1200
Text GLabel 8150 800  2    50   Input ~ 0
1V2
Text GLabel 7950 1200 1    50   Input ~ 0
2V5
$Comp
L power:GND #PWR?
U 1 1 5C8EEEE6
P 6450 1550
AR Path="/5C8D2EF7/5C8EEEE6" Ref="#PWR?"  Part="1" 
AR Path="/5C8EEEE6" Ref="#PWR024"  Part="1" 
F 0 "#PWR024" H 6450 1300 50  0001 C CNN
F 1 "GND" H 6455 1377 50  0000 C CNN
F 2 "" H 6450 1550 50  0001 C CNN
F 3 "" H 6450 1550 50  0001 C CNN
	1    6450 1550
	1    0    0    -1  
$EndComp
Wire Wire Line
	6450 1550 6450 1500
Wire Wire Line
	6450 1400 6400 1400
Wire Wire Line
	6400 1500 6450 1500
Connection ~ 6450 1500
Wire Wire Line
	6450 1500 6450 1400
Wire Wire Line
	5400 1300 5300 1300
Wire Wire Line
	5300 1300 5300 1400
Wire Wire Line
	5300 1500 5400 1500
Wire Wire Line
	5400 1400 5300 1400
Connection ~ 5300 1400
Wire Wire Line
	5300 1400 5300 1500
$Comp
L Device:C C?
U 1 1 5C8EEEF7
P 5200 1650
AR Path="/5C8D2EF7/5C8EEEF7" Ref="C?"  Part="1" 
AR Path="/5C8EEEF7" Ref="C15"  Part="1" 
F 0 "C15" H 5315 1696 50  0000 L CNN
F 1 "1u" H 5315 1605 50  0000 L CNN
F 2 "Capacitor_SMD:C_0603_1608Metric" H 5238 1500 50  0001 C CNN
F 3 "~" H 5200 1650 50  0001 C CNN
	1    5200 1650
	1    0    0    -1  
$EndComp
$Comp
L Device:C C?
U 1 1 5C8EEEFE
P 4850 1650
AR Path="/5C8D2EF7/5C8EEEFE" Ref="C?"  Part="1" 
AR Path="/5C8EEEFE" Ref="C14"  Part="1" 
F 0 "C14" H 4965 1696 50  0000 L CNN
F 1 "1u" H 4965 1605 50  0000 L CNN
F 2 "Capacitor_SMD:C_0603_1608Metric" H 4888 1500 50  0001 C CNN
F 3 "~" H 4850 1650 50  0001 C CNN
	1    4850 1650
	1    0    0    -1  
$EndComp
$Comp
L Device:C C?
U 1 1 5C8EEF05
P 4500 1650
AR Path="/5C8D2EF7/5C8EEF05" Ref="C?"  Part="1" 
AR Path="/5C8EEF05" Ref="C12"  Part="1" 
F 0 "C12" H 4615 1696 50  0000 L CNN
F 1 "1u" H 4615 1605 50  0000 L CNN
F 2 "Capacitor_SMD:C_0603_1608Metric" H 4538 1500 50  0001 C CNN
F 3 "~" H 4500 1650 50  0001 C CNN
	1    4500 1650
	1    0    0    -1  
$EndComp
Wire Wire Line
	4500 1500 4850 1500
Connection ~ 5300 1500
Connection ~ 4850 1500
Wire Wire Line
	4850 1500 5200 1500
Connection ~ 5200 1500
Wire Wire Line
	5200 1500 5300 1500
Wire Wire Line
	5200 1800 4850 1800
Connection ~ 4850 1800
Wire Wire Line
	4850 1800 4500 1800
$Comp
L power:GND #PWR?
U 1 1 5C8EEF15
P 4850 1900
AR Path="/5C8D2EF7/5C8EEF15" Ref="#PWR?"  Part="1" 
AR Path="/5C8EEF15" Ref="#PWR019"  Part="1" 
F 0 "#PWR019" H 4850 1650 50  0001 C CNN
F 1 "GND" H 4855 1727 50  0000 C CNN
F 2 "" H 4850 1900 50  0001 C CNN
F 3 "" H 4850 1900 50  0001 C CNN
	1    4850 1900
	1    0    0    -1  
$EndComp
Wire Wire Line
	4850 1800 4850 1900
Text GLabel 4400 1500 0    50   Input ~ 0
5V
Wire Wire Line
	4500 1500 4400 1500
Connection ~ 4500 1500
$Comp
L dk_PMIC-Voltage-Regulators-Linear:MC7805BDTRKG U?
U 1 1 5C8EEF28
P 2400 1000
AR Path="/5C8D2EF7/5C8EEF28" Ref="U?"  Part="1" 
AR Path="/5C8EEF28" Ref="U1"  Part="1" 
F 0 "U1" H 2400 1287 60  0000 C CNN
F 1 "MC7805BDTRKG" H 2400 1181 60  0000 C CNN
F 2 "digikey-footprints:TO-252-3" H 2600 1200 60  0001 L CNN
F 3 "http://www.onsemi.com/pub/Collateral/MC7800-D.PDF" H 2600 1300 60  0001 L CNN
F 4 "MC7805BDTRKGOSCT-ND" H 2600 1400 60  0001 L CNN "Digi-Key_PN"
F 5 "MC7805BDTRKG" H 2600 1500 60  0001 L CNN "MPN"
F 6 "Integrated Circuits (ICs)" H 2600 1600 60  0001 L CNN "Category"
F 7 "PMIC - Voltage Regulators - Linear" H 2600 1700 60  0001 L CNN "Family"
F 8 "http://www.onsemi.com/pub/Collateral/MC7800-D.PDF" H 2600 1800 60  0001 L CNN "DK_Datasheet_Link"
F 9 "/product-detail/en/on-semiconductor/MC7805BDTRKG/MC7805BDTRKGOSCT-ND/1139742" H 2600 1900 60  0001 L CNN "DK_Detail_Page"
F 10 "IC REG LINEAR 5V 1A DPAK" H 2600 2000 60  0001 L CNN "Description"
F 11 "ON Semiconductor" H 2600 2100 60  0001 L CNN "Manufacturer"
F 12 "Active" H 2600 2200 60  0001 L CNN "Status"
	1    2400 1000
	1    0    0    -1  
$EndComp
$Comp
L power:GND #PWR?
U 1 1 5C8EEF2F
P 2400 1300
AR Path="/5C8D2EF7/5C8EEF2F" Ref="#PWR?"  Part="1" 
AR Path="/5C8EEF2F" Ref="#PWR06"  Part="1" 
F 0 "#PWR06" H 2400 1050 50  0001 C CNN
F 1 "GND" H 2405 1127 50  0000 C CNN
F 2 "" H 2400 1300 50  0001 C CNN
F 3 "" H 2400 1300 50  0001 C CNN
	1    2400 1300
	1    0    0    -1  
$EndComp
$Comp
L Device:C C?
U 1 1 5C8EEF35
P 2700 1150
AR Path="/5C8D2EF7/5C8EEF35" Ref="C?"  Part="1" 
AR Path="/5C8EEF35" Ref="C4"  Part="1" 
F 0 "C4" H 2815 1196 50  0000 L CNN
F 1 "1u" H 2815 1105 50  0000 L CNN
F 2 "Capacitor_SMD:C_0603_1608Metric" H 2738 1000 50  0001 C CNN
F 3 "~" H 2700 1150 50  0001 C CNN
	1    2700 1150
	1    0    0    -1  
$EndComp
Text GLabel 2100 1000 0    50   Input ~ 0
9V
Text GLabel 6400 900  2    50   Input ~ 0
3V3
Text GLabel 6400 1000 2    50   Input ~ 0
2V5
Text GLabel 6400 1100 2    50   Input ~ 0
1V2
Text GLabel 6700 800  1    50   Input ~ 0
3V3
$Comp
L Device:C C?
U 1 1 5C8EEF56
P 6700 1000
AR Path="/5C8D2EF7/5C8EEF56" Ref="C?"  Part="1" 
AR Path="/5C8EEF56" Ref="C17"  Part="1" 
F 0 "C17" H 6815 1046 50  0000 L CNN
F 1 "1u" H 6815 955 50  0000 L CNN
F 2 "Capacitor_SMD:C_0603_1608Metric" H 6738 850 50  0001 C CNN
F 3 "~" H 6700 1000 50  0001 C CNN
	1    6700 1000
	1    0    0    -1  
$EndComp
$Comp
L power:GND #PWR?
U 1 1 5C8EEF5D
P 6700 1200
AR Path="/5C8D2EF7/5C8EEF5D" Ref="#PWR?"  Part="1" 
AR Path="/5C8EEF5D" Ref="#PWR025"  Part="1" 
F 0 "#PWR025" H 6700 950 50  0001 C CNN
F 1 "GND" H 6705 1027 50  0000 C CNN
F 2 "" H 6700 1200 50  0001 C CNN
F 3 "" H 6700 1200 50  0001 C CNN
	1    6700 1200
	1    0    0    -1  
$EndComp
Wire Wire Line
	6700 800  6700 850 
Wire Wire Line
	6700 1150 6700 1200
Text GLabel 7050 800  1    50   Input ~ 0
2V5
$Comp
L Device:C C?
U 1 1 5C8EEF66
P 7050 1000
AR Path="/5C8D2EF7/5C8EEF66" Ref="C?"  Part="1" 
AR Path="/5C8EEF66" Ref="C18"  Part="1" 
F 0 "C18" H 7165 1046 50  0000 L CNN
F 1 "1u" H 7165 955 50  0000 L CNN
F 2 "Capacitor_SMD:C_0603_1608Metric" H 7088 850 50  0001 C CNN
F 3 "~" H 7050 1000 50  0001 C CNN
	1    7050 1000
	1    0    0    -1  
$EndComp
$Comp
L power:GND #PWR?
U 1 1 5C8EEF6D
P 7050 1200
AR Path="/5C8D2EF7/5C8EEF6D" Ref="#PWR?"  Part="1" 
AR Path="/5C8EEF6D" Ref="#PWR026"  Part="1" 
F 0 "#PWR026" H 7050 950 50  0001 C CNN
F 1 "GND" H 7055 1027 50  0000 C CNN
F 2 "" H 7050 1200 50  0001 C CNN
F 3 "" H 7050 1200 50  0001 C CNN
	1    7050 1200
	1    0    0    -1  
$EndComp
Wire Wire Line
	7050 800  7050 850 
Wire Wire Line
	7050 1150 7050 1200
Text GLabel 7400 800  1    50   Input ~ 0
1V2
$Comp
L Device:C C?
U 1 1 5C8EEF76
P 7400 1000
AR Path="/5C8D2EF7/5C8EEF76" Ref="C?"  Part="1" 
AR Path="/5C8EEF76" Ref="C19"  Part="1" 
F 0 "C19" H 7515 1046 50  0000 L CNN
F 1 "1u" H 7515 955 50  0000 L CNN
F 2 "Capacitor_SMD:C_0603_1608Metric" H 7438 850 50  0001 C CNN
F 3 "~" H 7400 1000 50  0001 C CNN
	1    7400 1000
	1    0    0    -1  
$EndComp
$Comp
L power:GND #PWR?
U 1 1 5C8EEF7D
P 7400 1200
AR Path="/5C8D2EF7/5C8EEF7D" Ref="#PWR?"  Part="1" 
AR Path="/5C8EEF7D" Ref="#PWR027"  Part="1" 
F 0 "#PWR027" H 7400 950 50  0001 C CNN
F 1 "GND" H 7405 1027 50  0000 C CNN
F 2 "" H 7400 1200 50  0001 C CNN
F 3 "" H 7400 1200 50  0001 C CNN
	1    7400 1200
	1    0    0    -1  
$EndComp
Wire Wire Line
	7400 800  7400 850 
Wire Wire Line
	7400 1150 7400 1200
$Comp
L Device:C C?
U 1 1 5C8EEF85
P 8600 850
AR Path="/5C8D2EF7/5C8EEF85" Ref="C?"  Part="1" 
AR Path="/5C8EEF85" Ref="C20"  Part="1" 
F 0 "C20" V 8348 850 50  0000 C CNN
F 1 "10u" V 8439 850 50  0000 C CNN
F 2 "Capacitor_SMD:C_0603_1608Metric" H 8638 700 50  0001 C CNN
F 3 "~" H 8600 850 50  0001 C CNN
	1    8600 850 
	0    1    1    0   
$EndComp
$Comp
L Device:C C?
U 1 1 5C8EEF8C
P 8600 1250
AR Path="/5C8D2EF7/5C8EEF8C" Ref="C?"  Part="1" 
AR Path="/5C8EEF8C" Ref="C21"  Part="1" 
F 0 "C21" V 8348 1250 50  0000 C CNN
F 1 "0.1u" V 8439 1250 50  0000 C CNN
F 2 "Capacitor_SMD:C_0603_1608Metric" H 8638 1100 50  0001 C CNN
F 3 "~" H 8600 1250 50  0001 C CNN
	1    8600 1250
	0    1    1    0   
$EndComp
Wire Wire Line
	8150 1250 8450 1250
Wire Wire Line
	8450 1250 8450 850 
Connection ~ 8150 1250
Connection ~ 8450 1250
Wire Wire Line
	8750 1250 8750 850 
$Comp
L power:GND #PWR?
U 1 1 5C8EEF98
P 8750 1250
AR Path="/5C8D2EF7/5C8EEF98" Ref="#PWR?"  Part="1" 
AR Path="/5C8EEF98" Ref="#PWR029"  Part="1" 
F 0 "#PWR029" H 8750 1000 50  0001 C CNN
F 1 "GND" H 8755 1077 50  0000 C CNN
F 2 "" H 8750 1250 50  0001 C CNN
F 3 "" H 8750 1250 50  0001 C CNN
	1    8750 1250
	1    0    0    -1  
$EndComp
Connection ~ 8750 1250
$Comp
L solidtux:ADP322 U?
U 1 1 5C8EEF9F
P 5900 1200
AR Path="/5C8D2EF7/5C8EEF9F" Ref="U?"  Part="1" 
AR Path="/5C8EEF9F" Ref="U5"  Part="1" 
F 0 "U5" H 5900 1765 50  0000 C CNN
F 1 "ADP322" H 5900 1674 50  0000 C CNN
F 2 "Package_CSP:LFCSP-16-1EP_3x3mm_P0.5mm_EP1.854x1.854mm" H 5650 1300 50  0001 C CNN
F 3 "https://www.analog.com/media/en/technical-documentation/data-sheets/ADP322_323.pdf" H 5650 1300 50  0001 C CNN
	1    5900 1200
	1    0    0    -1  
$EndComp
Text GLabel 5400 1100 0    50   Input ~ 0
5V
Text GLabel 5400 900  0    50   Input ~ 0
5V
Wire Notes Line
	1750 550  4150 550 
Wire Notes Line
	4150 550  4150 1550
Wire Notes Line
	4150 1550 1750 1550
Wire Notes Line
	1750 1550 1750 550 
Text Notes 1800 650  0    50   ~ 0
5V Regulator
Wire Notes Line
	4200 550  7650 550 
Wire Notes Line
	7650 550  7650 2150
Text Notes 4250 650  0    50   ~ 0
1V2, 2V5, 3V3 Regulator
Text Notes 7750 650  0    50   ~ 0
FPGA Power
Wire Notes Line
	7700 550  9100 550 
Wire Notes Line
	9100 550  9100 2300
$Comp
L solidtux:PCM1754 U4
U 1 1 5C97303E
P 5750 6950
F 0 "U4" H 5750 7565 50  0000 C CNN
F 1 "PCM1754" H 5750 7474 50  0000 C CNN
F 2 "Package_SO:SSOP-16_5.3x6.2mm_P0.65mm" H 5750 6350 50  0001 C CNN
F 3 "http://www.ti.com/lit/ds/symlink/pcm1753.pdf" H 5750 6250 50  0001 C CNN
	1    5750 6950
	1    0    0    -1  
$EndComp
Text GLabel 3500 7600 2    50   Input ~ 0
ADC_BCK
Text GLabel 3500 7500 2    50   Input ~ 0
ADC_DATA
Text GLabel 3550 6700 1    50   Input ~ 0
PEDAL_IN
$Comp
L Device:C_Small C7
U 1 1 5C9E91D8
P 3550 6800
F 0 "C7" H 3436 6754 50  0000 R CNN
F 1 "1u" H 3436 6845 50  0000 R CNN
F 2 "Capacitor_SMD:C_0603_1608Metric" H 3588 6650 50  0001 C CNN
F 3 "~" H 3550 6800 50  0001 C CNN
	1    3550 6800
	1    0    0    1   
$EndComp
Text GLabel 2700 7600 0    50   Input ~ 0
ADC_LRCK
Text GLabel 2700 7500 0    50   Input ~ 0
ADC_SCK
$Comp
L power:GND #PWR010
U 1 1 5C9F3FB4
P 2700 7400
F 0 "#PWR010" H 2700 7150 50  0001 C CNN
F 1 "GND" V 2705 7272 50  0000 R CNN
F 2 "" H 2700 7400 50  0001 C CNN
F 3 "" H 2700 7400 50  0001 C CNN
	1    2700 7400
	0    1    1    0   
$EndComp
$Comp
L power:GNDA #PWR09
U 1 1 5C9F4053
P 2700 7100
F 0 "#PWR09" H 2700 6850 50  0001 C CNN
F 1 "GNDA" V 2705 6973 50  0000 R CNN
F 2 "" H 2700 7100 50  0001 C CNN
F 3 "" H 2700 7100 50  0001 C CNN
	1    2700 7100
	0    1    1    0   
$EndComp
Text GLabel 2700 7300 0    50   Input ~ 0
3V3
Text GLabel 2700 7200 0    50   Input ~ 0
5VA
Text GLabel 4200 7150 1    50   Input ~ 0
5VA
Text GLabel 4400 7150 1    50   Input ~ 0
3V3
$Comp
L Device:C_Small C10
U 1 1 5C9F5613
P 4200 7250
F 0 "C10" H 4085 7204 50  0000 R CNN
F 1 "0.1u" H 4085 7295 50  0000 R CNN
F 2 "Capacitor_SMD:C_0603_1608Metric" H 4238 7100 50  0001 C CNN
F 3 "~" H 4200 7250 50  0001 C CNN
	1    4200 7250
	1    0    0    1   
$EndComp
$Comp
L Device:C_Small C11
U 1 1 5C9F57DB
P 4400 7250
F 0 "C11" H 4515 7296 50  0000 L CNN
F 1 "0.1u" H 4515 7205 50  0000 L CNN
F 2 "Capacitor_SMD:C_0603_1608Metric" H 4438 7100 50  0001 C CNN
F 3 "~" H 4400 7250 50  0001 C CNN
	1    4400 7250
	1    0    0    -1  
$EndComp
$Comp
L power:GNDA #PWR017
U 1 1 5C9F59B8
P 4300 7350
F 0 "#PWR017" H 4300 7100 50  0001 C CNN
F 1 "GNDA" H 4305 7177 50  0000 C CNN
F 2 "" H 4300 7350 50  0001 C CNN
F 3 "" H 4300 7350 50  0001 C CNN
	1    4300 7350
	1    0    0    -1  
$EndComp
Wire Wire Line
	4200 7350 4300 7350
Connection ~ 4300 7350
Wire Wire Line
	4300 7350 4400 7350
$Comp
L Device:C_Small C5
U 1 1 5C9F91A0
P 2700 6900
F 0 "C5" H 2585 6854 50  0000 R CNN
F 1 "0.1u" H 2585 6945 50  0000 R CNN
F 2 "Capacitor_SMD:C_0603_1608Metric" H 2738 6750 50  0001 C CNN
F 3 "~" H 2700 6900 50  0001 C CNN
	1    2700 6900
	1    0    0    1   
$EndComp
$Comp
L power:GNDA #PWR08
U 1 1 5CA162CE
P 2700 6800
F 0 "#PWR08" H 2700 6550 50  0001 C CNN
F 1 "GNDA" H 2705 6627 50  0000 C CNN
F 2 "" H 2700 6800 50  0001 C CNN
F 3 "" H 2700 6800 50  0001 C CNN
	1    2700 6800
	-1   0    0    1   
$EndComp
Text GLabel 3500 7200 2    50   Input ~ 0
ADC_FMT
$Comp
L power:GNDA #PWR014
U 1 1 5CA17508
P 3500 7300
F 0 "#PWR014" H 3500 7050 50  0001 C CNN
F 1 "GNDA" V 3505 7172 50  0000 R CNN
F 2 "" H 3500 7300 50  0001 C CNN
F 3 "" H 3500 7300 50  0001 C CNN
	1    3500 7300
	0    -1   -1   0   
$EndComp
$Comp
L power:GNDA #PWR015
U 1 1 5CA175A9
P 3500 7400
F 0 "#PWR015" H 3500 7150 50  0001 C CNN
F 1 "GNDA" V 3505 7272 50  0000 R CNN
F 2 "" H 3500 7400 50  0001 C CNN
F 3 "" H 3500 7400 50  0001 C CNN
	1    3500 7400
	0    -1   -1   0   
$EndComp
Wire Notes Line
	2250 6150 4750 6150
Wire Notes Line
	4750 6150 4750 7750
Wire Notes Line
	4750 7750 2250 7750
Wire Notes Line
	2250 7750 2250 6150
Text Notes 2300 6250 0    50   ~ 0
ADC
Text GLabel 5350 6600 0    50   Input ~ 0
DAC_BCK
Text GLabel 5350 6700 0    50   Input ~ 0
DAC_DATA
Text GLabel 5350 6800 0    50   Input ~ 0
DAC_LRCK
$Comp
L power:GND #PWR020
U 1 1 5CA3912D
P 5350 6900
F 0 "#PWR020" H 5350 6650 50  0001 C CNN
F 1 "GND" V 5355 6772 50  0000 R CNN
F 2 "" H 5350 6900 50  0001 C CNN
F 3 "" H 5350 6900 50  0001 C CNN
	1    5350 6900
	0    1    1    0   
$EndComp
Text GLabel 5350 7100 0    50   Input ~ 0
5VA
Text GLabel 6150 6600 2    50   Input ~ 0
DAC_SCK
Text GLabel 6150 6700 2    50   Input ~ 0
DAC_FMT
Text GLabel 6150 6800 2    50   Input ~ 0
DAC_MUTE
Text GLabel 6150 6900 2    50   Input ~ 0
DAC_DEMP
Text GLabel 6150 7100 2    50   Input ~ 0
DAC_ZEROA
$Comp
L Device:C C16
U 1 1 5CA3CFD5
P 6350 7350
F 0 "C16" H 6465 7396 50  0000 L CNN
F 1 "10u" H 6465 7305 50  0000 L CNN
F 2 "Capacitor_SMD:C_0603_1608Metric" H 6388 7200 50  0001 C CNN
F 3 "~" H 6350 7350 50  0001 C CNN
	1    6350 7350
	1    0    0    -1  
$EndComp
Wire Wire Line
	6150 7200 6350 7200
$Comp
L power:GNDA #PWR022
U 1 1 5CA40B4C
P 6150 7300
F 0 "#PWR022" H 6150 7050 50  0001 C CNN
F 1 "GNDA" H 6155 7127 50  0000 C CNN
F 2 "" H 6150 7300 50  0001 C CNN
F 3 "" H 6150 7300 50  0001 C CNN
	1    6150 7300
	1    0    0    -1  
$EndComp
$Comp
L power:GNDA #PWR023
U 1 1 5CA412BD
P 6350 7500
F 0 "#PWR023" H 6350 7250 50  0001 C CNN
F 1 "GNDA" H 6355 7327 50  0000 C CNN
F 2 "" H 6350 7500 50  0001 C CNN
F 3 "" H 6350 7500 50  0001 C CNN
	1    6350 7500
	1    0    0    -1  
$EndComp
$Comp
L power:GNDA #PWR021
U 1 1 5CA413D6
P 6150 7000
F 0 "#PWR021" H 6150 6750 50  0001 C CNN
F 1 "GNDA" V 6155 6872 50  0000 R CNN
F 2 "" H 6150 7000 50  0001 C CNN
F 3 "" H 6150 7000 50  0001 C CNN
	1    6150 7000
	0    -1   -1   0   
$EndComp
Wire Wire Line
	3500 7000 3550 7000
Wire Wire Line
	3550 7000 3550 6900
Wire Notes Line
	4800 6200 6900 6200
Wire Notes Line
	6900 6200 6900 7750
Wire Notes Line
	6900 7750 4800 7750
Wire Notes Line
	4800 7750 4800 6200
Text Notes 4850 6300 0    50   ~ 0
DAC
$Comp
L solidtux:OPA2353 U7
U 2 1 5C9664BC
P 10250 5950
F 0 "U7" H 10250 6315 50  0000 C CNN
F 1 "OPA2353" H 10250 6224 50  0000 C CNN
F 2 "Package_SO:MSOP-8_3x3mm_P0.65mm" H 10250 5950 50  0001 C CNN
F 3 "" H 10250 5950 50  0001 C CNN
	2    10250 5950
	1    0    0    1   
$EndComp
Text GLabel 6400 7200 2    50   Input ~ 0
DAC_VCOM
Connection ~ 6350 7200
Wire Wire Line
	6350 7200 6400 7200
Text GLabel 9950 6050 0    50   Input ~ 0
DAC_VCOM
$Comp
L Device:C_Small C24
U 1 1 5C9934A9
P 9950 5700
F 0 "C24" H 10125 5625 50  0000 R CNN
F 1 "C" H 10100 5700 50  0000 R CNN
F 2 "Capacitor_SMD:C_0603_1608Metric" H 9988 5550 50  0001 C CNN
F 3 "~" H 9950 5700 50  0001 C CNN
	1    9950 5700
	1    0    0    1   
$EndComp
Wire Wire Line
	9750 5850 9950 5850
Wire Wire Line
	10550 5550 10550 5950
$Comp
L Device:C_Small C22
U 1 1 5C9A3396
P 9400 6000
F 0 "C22" H 9600 5950 50  0000 R CNN
F 1 "C" H 9325 6050 50  0000 R CNN
F 2 "Capacitor_SMD:C_0603_1608Metric" H 9438 5850 50  0001 C CNN
F 3 "~" H 9400 6000 50  0001 C CNN
	1    9400 6000
	1    0    0    1   
$EndComp
$Comp
L power:GNDA #PWR030
U 1 1 5C9A344E
P 9400 6100
F 0 "#PWR030" H 9400 5850 50  0001 C CNN
F 1 "GNDA" H 9405 5927 50  0000 C CNN
F 2 "" H 9400 6100 50  0001 C CNN
F 3 "" H 9400 6100 50  0001 C CNN
	1    9400 6100
	1    0    0    -1  
$EndComp
Text GLabel 5350 7200 0    50   Input ~ 0
DAC_OUT_L
Text GLabel 10550 5950 2    50   Input ~ 0
PEDAL_OUT
$Comp
L Device:C C26
U 1 1 5C9C64C8
P 10550 6100
F 0 "C26" H 10800 6050 50  0000 R CNN
F 1 "10u" H 10800 6150 50  0000 R CNN
F 2 "Capacitor_SMD:C_0603_1608Metric" H 10588 5950 50  0001 C CNN
F 3 "~" H 10550 6100 50  0001 C CNN
	1    10550 6100
	1    0    0    1   
$EndComp
Connection ~ 10550 5950
$Comp
L power:GNDA #PWR033
U 1 1 5C9C671A
P 10550 6250
F 0 "#PWR033" H 10550 6000 50  0001 C CNN
F 1 "GNDA" H 10555 6077 50  0000 C CNN
F 2 "" H 10550 6250 50  0001 C CNN
F 3 "" H 10550 6250 50  0001 C CNN
	1    10550 6250
	1    0    0    -1  
$EndComp
Text GLabel 10150 2250 0    50   Input ~ 0
ADC_SCK
Text GLabel 10150 2350 0    50   Input ~ 0
ADC_LRCK
Text GLabel 10150 2450 0    50   Input ~ 0
ADC_FMT
Text GLabel 10150 2550 0    50   Input ~ 0
ADC_DATA
Text GLabel 10150 2650 0    50   Input ~ 0
ADC_BCK
Text GLabel 10150 2750 0    50   Input ~ 0
DAC_BCK
Text GLabel 10150 2850 0    50   Input ~ 0
DAC_DATA
Text GLabel 10150 2950 0    50   Input ~ 0
DAC_LRCK
Text GLabel 10150 3050 0    50   Input ~ 0
DAC_SCK
Text GLabel 10150 3150 0    50   Input ~ 0
DAC_FMT
Text GLabel 10150 3250 0    50   Input ~ 0
DAC_MUTE
Text GLabel 10150 3350 0    50   Input ~ 0
DAC_DEMP
Text GLabel 10150 3450 0    50   Input ~ 0
DAC_ZEROA
Wire Notes Line
	9150 550  11150 550 
Wire Notes Line
	11150 550  11150 4200
Wire Notes Line
	11150 4200 9150 4200
Wire Notes Line
	9150 4200 9150 550 
Text Notes 9200 650  0    50   ~ 0
FPGA Audio, RGB LED
Wire Notes Line
	8500 5450 11150 5450
Wire Notes Line
	11150 5450 11150 6500
Wire Notes Line
	11150 6500 8500 6500
Wire Notes Line
	8500 6500 8500 5450
Text Notes 8550 5550 0    50   ~ 0
Output Filter
$Comp
L Device:LED_RABG D2
U 1 1 5CC13CA7
P 9500 3850
F 0 "D2" H 9500 4347 50  0000 C CNN
F 1 "LED_RABG" H 9500 4256 50  0000 C CNN
F 2 "LED_THT:LED_D5.0mm-4_RGB" H 9500 3800 50  0001 C CNN
F 3 "~" H 9500 3800 50  0001 C CNN
	1    9500 3850
	-1   0    0    -1  
$EndComp
Wire Wire Line
	9700 3650 10150 3650
Wire Wire Line
	10150 3750 9800 3750
Wire Wire Line
	9800 3750 9800 3850
Wire Wire Line
	9800 3850 9700 3850
Wire Wire Line
	9700 4050 9950 4050
Wire Wire Line
	9950 4050 9950 3850
Wire Wire Line
	9950 3850 10150 3850
Text GLabel 9300 3850 0    50   Input ~ 0
5V
Text GLabel 4500 900  0    50   Input ~ 0
5V
$Comp
L Device:R R3
U 1 1 5CA6E42D
P 4650 900
F 0 "R3" V 4443 900 50  0000 C CNN
F 1 "R" V 4534 900 50  0000 C CNN
F 2 "Resistor_SMD:R_0603_1608Metric" V 4580 900 50  0001 C CNN
F 3 "~" H 4650 900 50  0001 C CNN
	1    4650 900 
	0    1    1    0   
$EndComp
$Comp
L Device:C C?
U 1 1 5CA6E63F
P 4800 1050
AR Path="/5C8D2EF7/5CA6E63F" Ref="C?"  Part="1" 
AR Path="/5CA6E63F" Ref="C13"  Part="1" 
F 0 "C13" H 4915 1096 50  0000 L CNN
F 1 "C" H 4915 1005 50  0000 L CNN
F 2 "Capacitor_SMD:C_0603_1608Metric" H 4838 900 50  0001 C CNN
F 3 "~" H 4800 1050 50  0001 C CNN
	1    4800 1050
	1    0    0    -1  
$EndComp
$Comp
L power:GND #PWR?
U 1 1 5CA75712
P 4800 1200
AR Path="/5C8D2EF7/5CA75712" Ref="#PWR?"  Part="1" 
AR Path="/5CA75712" Ref="#PWR018"  Part="1" 
F 0 "#PWR018" H 4800 950 50  0001 C CNN
F 1 "GND" H 4805 1027 50  0000 C CNN
F 2 "" H 4800 1200 50  0001 C CNN
F 3 "" H 4800 1200 50  0001 C CNN
	1    4800 1200
	1    0    0    -1  
$EndComp
Wire Wire Line
	4800 900  5150 900 
Wire Wire Line
	5150 900  5150 1000
Wire Wire Line
	5150 1000 5400 1000
Connection ~ 4800 900 
Wire Wire Line
	2100 1300 2400 1300
Connection ~ 2400 1300
Wire Wire Line
	2400 1300 2700 1300
$Comp
L power:GNDA #PWR07
U 1 1 5C9A1D6E
P 2650 4050
F 0 "#PWR07" H 2650 3800 50  0001 C CNN
F 1 "GNDA" H 2655 3877 50  0000 C CNN
F 2 "" H 2650 4050 50  0001 C CNN
F 3 "" H 2650 4050 50  0001 C CNN
	1    2650 4050
	1    0    0    -1  
$EndComp
$Comp
L Device:R R1
U 1 1 5C9979F7
P 2650 3900
F 0 "R1" H 2720 3946 50  0000 L CNN
F 1 "1M" H 2720 3855 50  0000 L CNN
F 2 "Resistor_SMD:R_0603_1608Metric" V 2580 3900 50  0001 C CNN
F 3 "~" H 2650 3900 50  0001 C CNN
	1    2650 3900
	1    0    0    -1  
$EndComp
$Comp
L solidtux:EG5492 S1
U 1 1 5C7EB854
P 2450 2900
F 0 "S1" H 2450 3375 50  0000 C CNN
F 1 "EG5492" H 2450 3284 50  0000 C CNN
F 2 "solidtux:Switches_Stomp_Switch_3PDT" H 2450 3100 50  0001 C CNN
F 3 "" H 2450 3100 50  0001 C CNN
	1    2450 2900
	1    0    0    -1  
$EndComp
Wire Wire Line
	2650 2750 2700 2750
Wire Wire Line
	2700 2750 2700 2950
Wire Wire Line
	2700 2950 2650 2950
$Comp
L Connector:Jack-DC J3
U 1 1 5C7EBF01
P 1400 3850
F 0 "J3" H 1170 3808 50  0000 R CNN
F 1 "PJ-002A" H 1170 3899 50  0000 R CNN
F 2 "Connector_BarrelJack:BarrelJack_Horizontal" H 1450 3810 50  0001 C CNN
F 3 "~" H 1450 3810 50  0001 C CNN
F 4 "CP-002A-ND" H 1400 3850 50  0001 C CNN "Digikey"
	1    1400 3850
	1    0    0    1   
$EndComp
$Comp
L power:GND #PWR04
U 1 1 5C7EC04C
P 1750 4000
F 0 "#PWR04" H 1750 3750 50  0001 C CNN
F 1 "GND" H 1755 3827 50  0000 C CNN
F 2 "" H 1750 4000 50  0001 C CNN
F 3 "" H 1750 4000 50  0001 C CNN
	1    1750 4000
	1    0    0    -1  
$EndComp
Wire Wire Line
	1750 4000 1750 3950
Wire Wire Line
	1750 3950 1700 3950
Wire Wire Line
	1750 3700 1750 3750
Wire Wire Line
	1750 3750 1700 3750
$Comp
L Device:LED D1
U 1 1 5C7ECF88
P 2950 3550
F 0 "D1" V 2988 3433 50  0000 R CNN
F 1 "LED" V 2897 3433 50  0000 R CNN
F 2 "LED_THT:LED_D3.0mm" H 2950 3550 50  0001 C CNN
F 3 "~" H 2950 3550 50  0001 C CNN
F 4 "C503B-RAN-CZ0C0AA2CT-ND" V 2950 3550 50  0001 C CNN "Digikey"
	1    2950 3550
	0    -1   -1   0   
$EndComp
$Comp
L Device:R R2
U 1 1 5C7ED0ED
P 2950 3200
F 0 "R2" H 3020 3246 50  0000 L CNN
F 1 "360" H 3020 3155 50  0000 L CNN
F 2 "Resistor_SMD:R_0603_1608Metric" V 2880 3200 50  0001 C CNN
F 3 "~" H 2950 3200 50  0001 C CNN
F 4 "RHM360DCT-ND" H 2950 3200 50  0001 C CNN "Digikey"
	1    2950 3200
	1    0    0    -1  
$EndComp
Wire Wire Line
	2950 3050 2650 3050
Wire Wire Line
	2950 3400 2950 3350
$Comp
L power:GND #PWR011
U 1 1 5C7ED63E
P 2950 3700
F 0 "#PWR011" H 2950 3450 50  0001 C CNN
F 1 "GND" H 2955 3527 50  0000 C CNN
F 2 "" H 2950 3700 50  0001 C CNN
F 3 "" H 2950 3700 50  0001 C CNN
	1    2950 3700
	1    0    0    -1  
$EndComp
$Comp
L Connector:AudioJack2_Switch J1
U 1 1 5C7ED041
P 1300 2500
F 0 "J1" H 1020 2433 50  0000 R CNN
F 1 "AudioJack3" H 1020 2524 50  0000 R CNN
F 2 "solidtux:Audio Jack 2pin" H 1300 2500 50  0001 C CNN
F 3 "~" H 1300 2500 50  0001 C CNN
	1    1300 2500
	1    0    0    1   
$EndComp
$Comp
L Connector:AudioJack2_Switch J2
U 1 1 5C7ED999
P 1300 3100
F 0 "J2" H 1020 3033 50  0000 R CNN
F 1 "AudioJack3" H 1020 3124 50  0000 R CNN
F 2 "solidtux:Audio Jack 2pin" H 1300 3100 50  0001 C CNN
F 3 "~" H 1300 3100 50  0001 C CNN
	1    1300 3100
	1    0    0    1   
$EndComp
Wire Wire Line
	1750 3700 1900 3700
Wire Wire Line
	1750 4000 1900 4000
Connection ~ 1750 4000
$Comp
L Device:C C1
U 1 1 5C7F3C6D
P 1900 3850
F 0 "C1" H 2015 3896 50  0000 L CNN
F 1 "10u" H 2015 3805 50  0000 L CNN
F 2 "Capacitor_SMD:C_0603_1608Metric" H 1938 3700 50  0001 C CNN
F 3 "~" H 1900 3850 50  0001 C CNN
F 4 "1276-1119-1-ND" H 1900 3850 50  0001 C CNN "Digikey"
	1    1900 3850
	1    0    0    -1  
$EndComp
Wire Wire Line
	2250 3700 1900 3700
Connection ~ 1900 3700
Wire Wire Line
	1900 4000 2250 4000
Connection ~ 1900 4000
Wire Notes Line
	550  2250 4000 2250
Wire Notes Line
	4000 2250 4000 4350
Text Notes 600  2350 0    50   ~ 0
Connections
Text GLabel 1500 2500 2    50   Input ~ 0
AUDIO_IN
Text GLabel 1500 3100 2    50   Input ~ 0
AUDIO_OUT
Text GLabel 2650 3750 1    50   Input ~ 0
AUDIO_IN
Text GLabel 2250 2700 0    50   Input ~ 0
AUDIO_IN
Text GLabel 2250 2900 0    50   Input ~ 0
AUDIO_OUT
Text GLabel 3400 2500 2    50   Input ~ 0
PEDAL_IN
Text GLabel 3450 2850 2    50   Input ~ 0
PEDAL_OUT
Wire Notes Line
	550  4350 550  2250
Wire Notes Line
	4000 4350 550  4350
Wire Notes Line
	4200 2150 4200 550 
Wire Notes Line
	7650 2150 4200 2150
$Sheet
S 650  700  950  600 
U 5D497EDB
F0 "Programming" 50
F1 "programming.sch" 50
$EndSheet
Wire Notes Line
	7700 2300 7700 550 
Wire Notes Line
	9100 2300 7700 2300
$Comp
L Device:R_POT RV2
U 1 1 5DA75D11
P 3300 3000
F 0 "RV2" H 3230 2954 50  0000 R CNN
F 1 "R_POT" H 3230 3045 50  0000 R CNN
F 2 "Connector_PinHeader_2.54mm:PinHeader_1x03_P2.54mm_Vertical" H 3300 3000 50  0001 C CNN
F 3 "~" H 3300 3000 50  0001 C CNN
	1    3300 3000
	-1   0    0    1   
$EndComp
Wire Wire Line
	3300 2850 3450 2850
$Comp
L power:GNDA #PWR013
U 1 1 5DA8752E
P 3300 3150
F 0 "#PWR013" H 3300 2900 50  0001 C CNN
F 1 "GNDA" H 3305 2977 50  0000 C CNN
F 2 "" H 3300 3150 50  0001 C CNN
F 3 "" H 3300 3150 50  0001 C CNN
	1    3300 3150
	1    0    0    -1  
$EndComp
Wire Wire Line
	3150 2850 3150 3000
Wire Wire Line
	3150 2850 2650 2850
$Comp
L Device:R_POT RV1
U 1 1 5DA953A9
P 3250 2500
F 0 "RV1" H 3181 2454 50  0000 R CNN
F 1 "R_POT" H 3181 2545 50  0000 R CNN
F 2 "Connector_PinHeader_2.54mm:PinHeader_1x03_P2.54mm_Vertical" H 3250 2500 50  0001 C CNN
F 3 "~" H 3250 2500 50  0001 C CNN
	1    3250 2500
	1    0    0    1   
$EndComp
$Comp
L power:GNDA #PWR012
U 1 1 5DA9956C
P 3300 2700
F 0 "#PWR012" H 3300 2450 50  0001 C CNN
F 1 "GNDA" H 3305 2527 50  0000 C CNN
F 2 "" H 3300 2700 50  0001 C CNN
F 3 "" H 3300 2700 50  0001 C CNN
	1    3300 2700
	0    -1   -1   0   
$EndComp
Wire Wire Line
	3250 2650 3250 2700
Wire Wire Line
	3250 2700 3300 2700
Wire Wire Line
	3250 2350 2650 2350
Wire Wire Line
	2650 2350 2650 2650
$Comp
L power:GNDA #PWR02
U 1 1 5DAA9B11
P 1500 3300
F 0 "#PWR02" H 1500 3050 50  0001 C CNN
F 1 "GNDA" H 1505 3127 50  0000 C CNN
F 2 "" H 1500 3300 50  0001 C CNN
F 3 "" H 1500 3300 50  0001 C CNN
	1    1500 3300
	1    0    0    -1  
$EndComp
$Comp
L power:GNDA #PWR01
U 1 1 5DAA9F75
P 1500 2700
F 0 "#PWR01" H 1500 2450 50  0001 C CNN
F 1 "GNDA" H 1505 2527 50  0000 C CNN
F 2 "" H 1500 2700 50  0001 C CNN
F 3 "" H 1500 2700 50  0001 C CNN
	1    1500 2700
	1    0    0    -1  
$EndComp
Text GLabel 3300 1000 0    50   Input ~ 0
9V
Wire Wire Line
	3600 1300 3300 1300
Connection ~ 3600 1300
Wire Wire Line
	3900 1300 3600 1300
$Comp
L power:GNDA #PWR016
U 1 1 5CA943F2
P 3600 1300
F 0 "#PWR016" H 3600 1050 50  0001 C CNN
F 1 "GNDA" H 3605 1127 50  0000 C CNN
F 2 "" H 3600 1300 50  0001 C CNN
F 3 "" H 3600 1300 50  0001 C CNN
	1    3600 1300
	1    0    0    -1  
$EndComp
$Comp
L Device:C C?
U 1 1 5CA936BD
P 3900 1150
AR Path="/5C8D2EF7/5CA936BD" Ref="C?"  Part="1" 
AR Path="/5CA936BD" Ref="C9"  Part="1" 
F 0 "C9" H 4015 1196 50  0000 L CNN
F 1 "1u" H 4015 1105 50  0000 L CNN
F 2 "Capacitor_SMD:C_0603_1608Metric" H 3938 1000 50  0001 C CNN
F 3 "~" H 3900 1150 50  0001 C CNN
	1    3900 1150
	1    0    0    -1  
$EndComp
$Comp
L Device:C C?
U 1 1 5CA933A9
P 3300 1150
AR Path="/5C8D2EF7/5CA933A9" Ref="C?"  Part="1" 
AR Path="/5CA933A9" Ref="C6"  Part="1" 
F 0 "C6" H 3415 1196 50  0000 L CNN
F 1 "0.1u" H 3415 1105 50  0000 L CNN
F 2 "Capacitor_SMD:C_0603_1608Metric" H 3338 1000 50  0001 C CNN
F 3 "~" H 3300 1150 50  0001 C CNN
	1    3300 1150
	-1   0    0    -1  
$EndComp
$Comp
L Regulator_Linear:LM2931-5.0_SO8 U3
U 1 1 5CA8F848
P 3600 1000
F 0 "U3" H 3600 1242 50  0000 C CNN
F 1 "LM2931-5.0_SO8" H 3600 1151 50  0000 C CNN
F 2 "Package_SO:SOIC-8_3.9x4.9mm_P1.27mm" H 3700 1200 50  0001 C CIN
F 3 "http://www.ti.com/lit/ds/symlink/lm2931-n.pdf" H 3800 1000 50  0001 C CNN
	1    3600 1000
	1    0    0    -1  
$EndComp
Text GLabel 3900 1000 2    50   Input ~ 0
5VA
Text GLabel 2700 1000 2    50   Input ~ 0
5V
Text Notes 550  7700 0    50   ~ 0
TODO:\n\n - AUX in\n - AUX out\n - FTDI
Text GLabel 10550 1000 1    50   Input ~ 0
3V3
Wire Wire Line
	11050 1700 10800 1700
$Comp
L power:GND #PWR?
U 1 1 5E181EF4
P 11050 1700
AR Path="/5D497EDB/5E181EF4" Ref="#PWR?"  Part="1" 
AR Path="/5E181EF4" Ref="#PWR035"  Part="1" 
F 0 "#PWR035" H 11050 1450 50  0001 C CNN
F 1 "GND" H 11055 1527 50  0000 C CNN
F 2 "" H 11050 1700 50  0001 C CNN
F 3 "" H 11050 1700 50  0001 C CNN
	1    11050 1700
	1    0    0    -1  
$EndComp
Wire Wire Line
	10600 1700 10550 1700
Wire Wire Line
	10550 1700 10550 1400
Connection ~ 10550 1400
Wire Wire Line
	10600 1400 10550 1400
Wire Wire Line
	10550 1400 10550 1100
Wire Wire Line
	10550 1100 10550 1000
Connection ~ 10550 1100
Wire Wire Line
	10600 1100 10550 1100
Connection ~ 10550 1700
Wire Wire Line
	10550 1750 10550 1700
$Comp
L Device:C_Small C?
U 1 1 5E181F04
P 10700 1700
AR Path="/5D497EDB/5E181F04" Ref="C?"  Part="1" 
AR Path="/5E181F04" Ref="C30"  Part="1" 
F 0 "C30" V 10500 1700 50  0000 C CNN
F 1 "10n" V 10600 1700 50  0000 C CNN
F 2 "Capacitor_SMD:C_0603_1608Metric" H 10738 1550 50  0001 C CNN
F 3 "~" H 10700 1700 50  0001 C CNN
	1    10700 1700
	0    1    1    0   
$EndComp
Wire Wire Line
	10800 1400 10800 1700
Wire Wire Line
	10800 1100 10800 1400
Connection ~ 10800 1400
$Comp
L Device:C_Small C?
U 1 1 5E181F0D
P 10700 1400
AR Path="/5D497EDB/5E181F0D" Ref="C?"  Part="1" 
AR Path="/5E181F0D" Ref="C29"  Part="1" 
F 0 "C29" V 10500 1400 50  0000 C CNN
F 1 "0.1u" V 10600 1400 50  0000 C CNN
F 2 "Capacitor_SMD:C_0603_1608Metric" H 10738 1250 50  0001 C CNN
F 3 "~" H 10700 1400 50  0001 C CNN
	1    10700 1400
	0    1    1    0   
$EndComp
$Comp
L Device:C_Small C?
U 1 1 5E181F13
P 10700 1100
AR Path="/5D497EDB/5E181F13" Ref="C?"  Part="1" 
AR Path="/5E181F13" Ref="C28"  Part="1" 
F 0 "C28" V 10500 1100 50  0000 C CNN
F 1 "1u" V 10600 1100 50  0000 C CNN
F 2 "Capacitor_SMD:C_0603_1608Metric" H 10738 950 50  0001 C CNN
F 3 "~" H 10700 1100 50  0001 C CNN
	1    10700 1100
	0    1    1    0   
$EndComp
Connection ~ 10800 1700
Text GLabel 9100 5850 0    50   Input ~ 0
DAC_OUT_L
$Comp
L Device:R_Small R9
U 1 1 5C9936F6
P 9650 5850
F 0 "R9" V 9725 5750 50  0000 C CNN
F 1 "R" V 9575 5850 50  0000 C CNN
F 2 "Resistor_SMD:R_0603_1608Metric" V 9580 5850 50  0001 C CNN
F 3 "~" H 9650 5850 50  0001 C CNN
	1    9650 5850
	0    -1   1    0   
$EndComp
$Comp
L Device:R_Small R7
U 1 1 5C994AEC
P 9400 5700
F 0 "R7" H 9330 5746 50  0000 R CNN
F 1 "R" H 9330 5655 50  0000 R CNN
F 2 "Resistor_SMD:R_0603_1608Metric" V 9330 5700 50  0001 C CNN
F 3 "~" H 9400 5700 50  0001 C CNN
	1    9400 5700
	-1   0    0    -1  
$EndComp
$Comp
L Device:R_Small R5
U 1 1 5C994A50
P 9200 5850
F 0 "R5" V 8993 5850 50  0000 C CNN
F 1 "R" V 9125 5850 50  0000 C CNN
F 2 "Resistor_SMD:R_0603_1608Metric" V 9130 5850 50  0001 C CNN
F 3 "~" H 9200 5850 50  0001 C CNN
	1    9200 5850
	0    -1   1    0   
$EndComp
Wire Wire Line
	9400 5550 9400 5600
Wire Wire Line
	9400 5550 9950 5550
Wire Wire Line
	9950 5600 9950 5550
Connection ~ 9950 5550
Wire Wire Line
	9950 5550 10550 5550
Wire Wire Line
	9950 5800 9950 5850
Connection ~ 9950 5850
Wire Wire Line
	9300 5850 9400 5850
Wire Wire Line
	9400 5800 9400 5850
Connection ~ 9400 5850
Wire Wire Line
	9400 5850 9550 5850
Wire Wire Line
	9400 5850 9400 5900
$Comp
L Device:C C?
U 1 1 5C8EEF46
P 2100 1150
AR Path="/5C8D2EF7/5C8EEF46" Ref="C?"  Part="1" 
AR Path="/5C8EEF46" Ref="C2"  Part="1" 
F 0 "C2" H 2215 1196 50  0000 L CNN
F 1 "0.33u" H 2215 1105 50  0000 L CNN
F 2 "Capacitor_SMD:C_0603_1608Metric" H 2138 1000 50  0001 C CNN
F 3 "~" H 2100 1150 50  0001 C CNN
	1    2100 1150
	-1   0    0    -1  
$EndComp
$Comp
L Device:C C3
U 1 1 5CD34F4E
P 2250 3850
F 0 "C3" H 2365 3896 50  0000 L CNN
F 1 "10n" H 2365 3805 50  0000 L CNN
F 2 "Capacitor_SMD:C_0603_1608Metric" H 2288 3700 50  0001 C CNN
F 3 "~" H 2250 3850 50  0001 C CNN
F 4 "732-8007-1-ND" H 2250 3850 50  0001 C CNN "Digikey"
	1    2250 3850
	1    0    0    -1  
$EndComp
Text GLabel 2250 3700 2    50   Input ~ 0
9V
Text GLabel 2250 3100 0    50   Input ~ 0
9V
NoConn ~ 2650 3150
NoConn ~ 1500 2400
NoConn ~ 1500 2600
NoConn ~ 1500 3000
NoConn ~ 1500 3200
NoConn ~ 10150 3550
$Comp
L solidtux:PCM1808 U2
U 1 1 5C971F95
P 3100 7300
F 0 "U2" H 3100 7865 50  0000 C CNN
F 1 "PCM1808" H 3100 7774 50  0000 C CNN
F 2 "Package_SO:TSSOP-14_4.4x5mm_P0.65mm" H 3100 6750 50  0001 C CNN
F 3 "http://www.ti.com/lit/ds/symlink/pcm1808.pdf" H 3100 6650 50  0001 C CNN
	1    3100 7300
	1    0    0    -1  
$EndComp
NoConn ~ 3500 7100
NoConn ~ 5350 7300
$EndSCHEMATC
