EESchema Schematic File Version 4
EELAYER 30 0
EELAYER END
$Descr A4 11693 8268
encoding utf-8
Sheet 2 2
Title ""
Date ""
Rev ""
Comp ""
Comment1 ""
Comment2 ""
Comment3 ""
Comment4 ""
$EndDescr
Text GLabel 2250 3700 2    50   Input ~ 0
SPI_CS
Text GLabel 2250 3400 2    50   Input ~ 0
SPI_SCK
Text GLabel 2250 3100 2    50   Input ~ 0
SPI_SI
Text GLabel 2250 2800 2    50   Input ~ 0
SPI_SO
$Comp
L Connector:TestPoint TP4
U 1 1 5D4A0668
P 2250 3700
F 0 "TP4" V 2445 3774 50  0000 C CNN
F 1 "CS" V 2354 3774 50  0000 C CNN
F 2 "TestPoint:TestPoint_THTPad_D2.5mm_Drill1.2mm" H 2450 3700 50  0001 C CNN
F 3 "~" H 2450 3700 50  0001 C CNN
	1    2250 3700
	0    -1   -1   0   
$EndComp
$Comp
L Connector:TestPoint TP3
U 1 1 5D4A066E
P 2250 3400
F 0 "TP3" V 2445 3474 50  0000 C CNN
F 1 "SCK" V 2354 3474 50  0000 C CNN
F 2 "TestPoint:TestPoint_THTPad_D2.5mm_Drill1.2mm" H 2450 3400 50  0001 C CNN
F 3 "~" H 2450 3400 50  0001 C CNN
	1    2250 3400
	0    -1   -1   0   
$EndComp
$Comp
L Connector:TestPoint TP2
U 1 1 5D4A0674
P 2250 3100
F 0 "TP2" V 2445 3174 50  0000 C CNN
F 1 "SI" V 2354 3174 50  0000 C CNN
F 2 "TestPoint:TestPoint_THTPad_D2.5mm_Drill1.2mm" H 2450 3100 50  0001 C CNN
F 3 "~" H 2450 3100 50  0001 C CNN
	1    2250 3100
	0    -1   -1   0   
$EndComp
$Comp
L Connector:TestPoint TP1
U 1 1 5D4A067A
P 2250 2800
F 0 "TP1" V 2445 2874 50  0000 C CNN
F 1 "SO" V 2354 2874 50  0000 C CNN
F 2 "TestPoint:TestPoint_THTPad_D2.5mm_Drill1.2mm" H 2450 2800 50  0001 C CNN
F 3 "~" H 2450 2800 50  0001 C CNN
	1    2250 2800
	0    -1   -1   0   
$EndComp
Text Notes 600  650  0    50   ~ 0
FPGA IO
Wire Notes Line
	550  4100 550  550 
Wire Notes Line
	2850 4100 550  4100
Wire Notes Line
	2850 550  2850 4100
Wire Notes Line
	550  550  2850 550 
Wire Wire Line
	2500 2150 2350 2150
Text GLabel 2500 2150 2    50   Input ~ 0
CDONE
Wire Wire Line
	2350 2300 2350 2150
Wire Wire Line
	2350 2050 2350 2150
Connection ~ 2350 2150
$Comp
L Connector:TestPoint TP5
U 1 1 5D4A068A
P 2350 2300
F 0 "TP5" H 2292 2327 50  0000 R CNN
F 1 "CDONE" H 2292 2418 50  0000 R CNN
F 2 "TestPoint:TestPoint_THTPad_D2.5mm_Drill1.2mm" H 2550 2300 50  0001 C CNN
F 3 "~" H 2550 2300 50  0001 C CNN
	1    2350 2300
	-1   0    0    1   
$EndComp
Wire Wire Line
	2350 1850 2350 1700
Wire Wire Line
	2100 2150 2350 2150
Text GLabel 2350 1700 1    50   Input ~ 0
3V3
$Comp
L Device:R_Small R12
U 1 1 5D4A0693
P 2350 1950
F 0 "R12" H 2420 1996 50  0000 L CNN
F 1 "10k" H 2420 1905 50  0000 L CNN
F 2 "Resistor_SMD:R_0603_1608Metric" V 2280 1950 50  0001 C CNN
F 3 "~" H 2350 1950 50  0001 C CNN
	1    2350 1950
	1    0    0    -1  
$EndComp
Text GLabel 1100 2150 0    50   Input ~ 0
FPGA_RSTN
Text GLabel 1100 3750 0    50   Input ~ 0
SPI_CS
Text GLabel 1100 3650 0    50   Input ~ 0
SPI_SCK
Text GLabel 1100 3550 0    50   Input ~ 0
SPI_SI
Text GLabel 1100 3450 0    50   Input ~ 0
SPI_SO
Text GLabel 1100 1850 1    50   Input ~ 0
3V3
Text GLabel 1600 1000 1    50   Input ~ 0
3V3
Wire Wire Line
	2100 1700 1850 1700
$Comp
L power:GND #PWR037
U 1 1 5D4A06A1
P 2100 1700
F 0 "#PWR037" H 2100 1450 50  0001 C CNN
F 1 "GND" H 2105 1527 50  0000 C CNN
F 2 "" H 2100 1700 50  0001 C CNN
F 3 "" H 2100 1700 50  0001 C CNN
	1    2100 1700
	1    0    0    -1  
$EndComp
Wire Wire Line
	1650 1700 1600 1700
Wire Wire Line
	1600 1700 1600 1400
Connection ~ 1600 1400
Wire Wire Line
	1650 1400 1600 1400
Wire Wire Line
	1600 1400 1600 1100
Wire Wire Line
	1600 1100 1600 1000
Connection ~ 1600 1100
Wire Wire Line
	1650 1100 1600 1100
Connection ~ 1600 1700
Wire Wire Line
	1600 1750 1600 1700
$Comp
L Device:C_Small C36
U 1 1 5D4A06B2
P 1750 1700
F 0 "C36" V 1550 1700 50  0000 C CNN
F 1 "10n" V 1650 1700 50  0000 C CNN
F 2 "Capacitor_SMD:C_0603_1608Metric" H 1788 1550 50  0001 C CNN
F 3 "~" H 1750 1700 50  0001 C CNN
	1    1750 1700
	0    1    1    0   
$EndComp
Wire Wire Line
	1850 1400 1850 1700
Wire Wire Line
	1850 1100 1850 1400
Connection ~ 1850 1400
$Comp
L Device:C_Small C35
U 1 1 5D4A06BB
P 1750 1400
F 0 "C35" V 1550 1400 50  0000 C CNN
F 1 "0.1u" V 1650 1400 50  0000 C CNN
F 2 "Capacitor_SMD:C_0603_1608Metric" H 1788 1250 50  0001 C CNN
F 3 "~" H 1750 1400 50  0001 C CNN
	1    1750 1400
	0    1    1    0   
$EndComp
$Comp
L Device:C_Small C34
U 1 1 5D4A06C1
P 1750 1100
F 0 "C34" V 1550 1100 50  0000 C CNN
F 1 "1u" V 1650 1100 50  0000 C CNN
F 2 "Capacitor_SMD:C_0603_1608Metric" H 1788 950 50  0001 C CNN
F 3 "~" H 1750 1100 50  0001 C CNN
	1    1750 1100
	0    1    1    0   
$EndComp
$Comp
L Device:R_Small R11
U 1 1 5D4A06C7
P 1100 2000
F 0 "R11" H 1170 2046 50  0000 L CNN
F 1 "10k" H 1170 1955 50  0000 L CNN
F 2 "Resistor_SMD:R_0603_1608Metric" V 1030 2000 50  0001 C CNN
F 3 "~" H 1100 2000 50  0001 C CNN
	1    1100 2000
	-1   0    0    -1  
$EndComp
$Comp
L FPGA_Lattice:ICE40UP5K-SG48ITR U6
U 2 1 5D4A06CD
P 1600 2850
F 0 "U6" H 1600 1776 50  0000 C CNN
F 1 "ICE40UP5K-SG48ITR" H 1600 1685 50  0000 C CNN
F 2 "Package_DFN_QFN:QFN-48-1EP_7x7mm_P0.5mm_EP5.6x5.6mm" H 1600 1500 50  0001 C CNN
F 3 "http://www.latticesemi.com/Products/FPGAandCPLD/iCE40Ultra" H 1200 3850 50  0001 C CNN
	2    1600 2850
	1    0    0    -1  
$EndComp
$Comp
L solidtux:W25Q128JVS U9
U 1 1 5D4A5BAB
P 4150 1400
F 0 "U9" H 4150 1915 50  0000 C CNN
F 1 "W25Q128JVS" H 4150 1824 50  0000 C CNN
F 2 "Package_SO:SOIC-8_5.23x5.23mm_P1.27mm" H 4150 900 50  0001 C CNN
F 3 "http://www.winbond.com/resource-files/w25q128jv_dtr%20revc%2003272018%20plus.pdf" H 4150 1500 50  0001 C CNN
	1    4150 1400
	1    0    0    -1  
$EndComp
Text GLabel 3400 1550 1    50   Input ~ 0
3V3
Wire Wire Line
	3700 1550 3400 1550
Wire Wire Line
	3400 1550 3400 1650
Text GLabel 5000 1550 2    50   Input ~ 0
SPI_SO
Text GLabel 5000 1450 2    50   Input ~ 0
SPI_SI
Text GLabel 5000 1350 2    50   Input ~ 0
SPI_SCK
Text GLabel 5000 1250 2    50   Input ~ 0
SPI_CS
Text GLabel 8600 2550 2    50   Input ~ 0
SPI_SCK
Text GLabel 8600 2650 2    50   Input ~ 0
SPI_SI
Text GLabel 8600 2750 2    50   Input ~ 0
SPI_SO
Text GLabel 8600 2850 2    50   Input ~ 0
SPI_CS
$Comp
L Device:Jumper_NO_Small JP1
U 1 1 5D915FAF
P 4900 1250
F 0 "JP1" H 4900 1300 50  0000 C CNN
F 1 "Jumper_NO_Small" H 4900 1344 50  0001 C CNN
F 2 "Connector_PinHeader_2.54mm:PinHeader_1x02_P2.54mm_Vertical" H 4900 1250 50  0001 C CNN
F 3 "~" H 4900 1250 50  0001 C CNN
	1    4900 1250
	1    0    0    -1  
$EndComp
Text GLabel 5000 1150 2    50   Input ~ 0
SPI_RST
Text GLabel 5000 1650 2    50   Input ~ 0
SPI_WP
Text GLabel 1100 3050 0    50   Input ~ 0
SPI_RST
Wire Wire Line
	5000 1150 4650 1150
Wire Wire Line
	4650 1800 4650 1150
Connection ~ 4650 1150
Wire Wire Line
	4650 1150 4600 1150
Wire Wire Line
	4800 1250 4750 1250
Wire Wire Line
	4750 1250 4750 1800
Connection ~ 4750 1250
Wire Wire Line
	4750 1250 4600 1250
Wire Wire Line
	5000 1350 4850 1350
Wire Wire Line
	4850 1350 4850 1800
Connection ~ 4850 1350
Wire Wire Line
	4850 1350 4600 1350
Wire Wire Line
	5000 1450 4600 1450
Wire Wire Line
	5000 1550 4600 1550
Wire Wire Line
	5000 1650 4950 1650
Wire Wire Line
	4950 1800 4950 1650
Connection ~ 4950 1650
Wire Wire Line
	4950 1650 4600 1650
$Comp
L Device:R R18
U 1 1 5D91F36E
P 4750 1950
F 0 "R18" V 4750 1600 50  0000 L CNN
F 1 "10k" V 4750 1450 50  0000 L CNN
F 2 "Resistor_SMD:R_0603_1608Metric" V 4680 1950 50  0001 C CNN
F 3 "~" H 4750 1950 50  0001 C CNN
	1    4750 1950
	1    0    0    -1  
$EndComp
$Comp
L Device:R R19
U 1 1 5D91F504
P 4850 1950
F 0 "R19" V 4850 1600 50  0000 L CNN
F 1 "10k" V 4850 1450 50  0000 L CNN
F 2 "Resistor_SMD:R_0603_1608Metric" V 4780 1950 50  0001 C CNN
F 3 "~" H 4850 1950 50  0001 C CNN
	1    4850 1950
	1    0    0    -1  
$EndComp
$Comp
L Device:R R20
U 1 1 5D91F742
P 4950 1950
F 0 "R20" V 4950 1600 50  0000 L CNN
F 1 "10k" V 4950 1450 50  0000 L CNN
F 2 "Resistor_SMD:R_0603_1608Metric" V 4880 1950 50  0001 C CNN
F 3 "~" H 4950 1950 50  0001 C CNN
	1    4950 1950
	1    0    0    -1  
$EndComp
Text GLabel 4550 2100 0    50   Input ~ 0
3V3
Wire Wire Line
	4550 2100 4650 2100
Connection ~ 4650 2100
Wire Wire Line
	4650 2100 4750 2100
Connection ~ 4750 2100
Wire Wire Line
	4750 2100 4850 2100
Connection ~ 4850 2100
Wire Wire Line
	4850 2100 4950 2100
Text GLabel 1100 2850 0    50   Input ~ 0
SPI_WP
Text GLabel 6800 2500 1    50   Input ~ 0
3V3
$Comp
L power:GND #PWR044
U 1 1 5D9271BD
P 7600 5250
F 0 "#PWR044" H 7600 5000 50  0001 C CNN
F 1 "GND" H 7605 5077 50  0000 C CNN
F 2 "" H 7600 5250 50  0001 C CNN
F 3 "" H 7600 5250 50  0001 C CNN
	1    7600 5250
	1    0    0    -1  
$EndComp
$Comp
L power:GNDA #PWR043
U 1 1 5D927C52
P 7300 5250
F 0 "#PWR043" H 7300 5000 50  0001 C CNN
F 1 "GNDA" H 7305 5077 50  0000 C CNN
F 2 "" H 7300 5250 50  0001 C CNN
F 3 "" H 7300 5250 50  0001 C CNN
	1    7300 5250
	1    0    0    -1  
$EndComp
Text GLabel 8600 3150 2    50   Input ~ 0
CDONE
Text GLabel 8900 3250 2    50   Input ~ 0
FPGA_RSTN
$Comp
L Device:R R23
U 1 1 5D928647
P 8750 3250
F 0 "R23" V 8850 3300 50  0000 L CNN
F 1 "2k2" V 8850 3100 50  0000 L CNN
F 2 "Resistor_SMD:R_0603_1608Metric" V 8680 3250 50  0001 C CNN
F 3 "~" H 8750 3250 50  0001 C CNN
	1    8750 3250
	0    1    1    0   
$EndComp
$Comp
L Device:R R21
U 1 1 5D928F82
P 6650 3450
F 0 "R21" V 6750 3450 50  0000 L CNN
F 1 "10k" V 6750 3300 50  0000 L CNN
F 2 "Resistor_SMD:R_0603_1608Metric" V 6580 3450 50  0001 C CNN
F 3 "~" H 6650 3450 50  0001 C CNN
	1    6650 3450
	0    1    1    0   
$EndComp
$Comp
L Device:R R22
U 1 1 5D929E5E
P 6650 3650
F 0 "R22" V 6750 3700 50  0000 L CNN
F 1 "12k 1%" V 6750 3400 50  0000 L CNN
F 2 "Resistor_SMD:R_0603_1608Metric" V 6580 3650 50  0001 C CNN
F 3 "~" H 6650 3650 50  0001 C CNN
	1    6650 3650
	0    1    1    0   
$EndComp
Text GLabel 6500 3450 0    50   Input ~ 0
3V3
$Comp
L power:GND #PWR042
U 1 1 5D92AE1B
P 6500 3650
F 0 "#PWR042" H 6500 3400 50  0001 C CNN
F 1 "GND" V 6505 3522 50  0000 R CNN
F 2 "" H 6500 3650 50  0001 C CNN
F 3 "" H 6500 3650 50  0001 C CNN
	1    6500 3650
	0    1    1    0   
$EndComp
Wire Wire Line
	6800 2550 6800 2700
$Comp
L power:GND #PWR041
U 1 1 5D9326B3
P 6250 3000
F 0 "#PWR041" H 6250 2750 50  0001 C CNN
F 1 "GND" V 6255 2872 50  0000 R CNN
F 2 "" H 6250 3000 50  0001 C CNN
F 3 "" H 6250 3000 50  0001 C CNN
	1    6250 3000
	0    1    1    0   
$EndComp
$Comp
L FPGA_Lattice:ICE40UP5K-SG48ITR U6
U 3 1 5D9B0188
P 1550 6100
F 0 "U6" H 1300 6750 50  0000 L CNN
F 1 "ICE40UP5K-SG48ITR" V 1900 5750 50  0000 L CNN
F 2 "Package_DFN_QFN:QFN-48-1EP_7x7mm_P0.5mm_EP5.6x5.6mm" H 1550 4750 50  0001 C CNN
F 3 "http://www.latticesemi.com/Products/FPGAandCPLD/iCE40Ultra" H 1150 7100 50  0001 C CNN
	3    1550 6100
	1    0    0    -1  
$EndComp
Wire Notes Line
	550  4150 2200 4150
Wire Notes Line
	2200 4150 2200 6750
Wire Notes Line
	2200 6750 550  6750
Wire Notes Line
	550  6750 550  4150
Text Notes 600  4250 0    50   ~ 0
Parallel
$Comp
L Device:R R17
U 1 1 5D919CA3
P 4650 1950
F 0 "R17" V 4650 1600 50  0000 L CNN
F 1 "10k" V 4650 1450 50  0000 L CNN
F 2 "Resistor_SMD:R_0603_1608Metric" V 4580 1950 50  0001 C CNN
F 3 "~" H 4650 1950 50  0001 C CNN
	1    4650 1950
	1    0    0    -1  
$EndComp
Text GLabel 8600 3750 2    50   Input ~ 0
FTDATA3
Text GLabel 8600 3650 2    50   Input ~ 0
FTDATA2
Text GLabel 8600 3550 2    50   Input ~ 0
FTDATA1
Text GLabel 8600 3450 2    50   Input ~ 0
FTDATA0
Text GLabel 8600 4150 2    50   Input ~ 0
FTDATA7
Text GLabel 8600 4050 2    50   Input ~ 0
FTDATA6
Text GLabel 8600 3950 2    50   Input ~ 0
FTDATA5
Text GLabel 8600 3850 2    50   Input ~ 0
FTDATA4
Text GLabel 1150 6200 0    50   Input ~ 0
FTDATA3
Text GLabel 1150 6100 0    50   Input ~ 0
FTDATA2
Text GLabel 1150 6000 0    50   Input ~ 0
FTDATA1
Text GLabel 1150 5900 0    50   Input ~ 0
FTDATA0
Text GLabel 1150 6600 0    50   Input ~ 0
FTDATA7
Text GLabel 1150 6500 0    50   Input ~ 0
FTDATA6
Text GLabel 1150 6400 0    50   Input ~ 0
FTDATA5
Text GLabel 1150 6300 0    50   Input ~ 0
FTDATA4
$Comp
L dk_USB-DVI-HDMI-Connectors:10118194-0001LF J4
U 1 1 5D983E13
P 4050 3700
F 0 "J4" H 4114 4445 60  0000 C CNN
F 1 "10118194-0001LF" H 4114 4339 60  0000 C CNN
F 2 "digikey-footprints:USB_Micro_B_Female_10118194-0001LF" H 4250 3900 60  0001 L CNN
F 3 "http://www.amphenol-icc.com/media/wysiwyg/files/drawing/10118194.pdf" H 4250 4000 60  0001 L CNN
F 4 "609-4618-1-ND" H 4250 4100 60  0001 L CNN "Digi-Key_PN"
F 5 "10118194-0001LF" H 4250 4200 60  0001 L CNN "MPN"
F 6 "Connectors, Interconnects" H 4250 4300 60  0001 L CNN "Category"
F 7 "USB, DVI, HDMI Connectors" H 4250 4400 60  0001 L CNN "Family"
F 8 "http://www.amphenol-icc.com/media/wysiwyg/files/drawing/10118194.pdf" H 4250 4500 60  0001 L CNN "DK_Datasheet_Link"
F 9 "/product-detail/en/amphenol-icc-fci/10118194-0001LF/609-4618-1-ND/2785382" H 4250 4600 60  0001 L CNN "DK_Detail_Page"
F 10 "CONN RCPT USB2.0 MICRO B SMD R/A" H 4250 4700 60  0001 L CNN "Description"
F 11 "Amphenol ICC (FCI)" H 4250 4800 60  0001 L CNN "Manufacturer"
F 12 "Active" H 4250 4900 60  0001 L CNN "Status"
	1    4050 3700
	1    0    0    -1  
$EndComp
$Comp
L power:GND #PWR040
U 1 1 5DAAFA4B
P 3950 4300
F 0 "#PWR040" H 3950 4050 50  0001 C CNN
F 1 "GND" V 3955 4172 50  0000 R CNN
F 2 "" H 3950 4300 50  0001 C CNN
F 3 "" H 3950 4300 50  0001 C CNN
	1    3950 4300
	1    0    0    -1  
$EndComp
Text GLabel 6800 3250 0    50   Input ~ 0
USB_D+
Text GLabel 6800 3150 0    50   Input ~ 0
USB_D-
Text GLabel 8100 2250 2    50   Input ~ 0
3V3
$Comp
L power:GND #PWR?
U 1 1 5E087F02
P 8250 1700
AR Path="/5C8D2EF7/5E087F02" Ref="#PWR?"  Part="1" 
AR Path="/5E087F02" Ref="#PWR?"  Part="1" 
AR Path="/5D497EDB/5E087F02" Ref="#PWR045"  Part="1" 
F 0 "#PWR045" H 8250 1450 50  0001 C CNN
F 1 "GND" H 8255 1527 50  0000 C CNN
F 2 "" H 8250 1700 50  0001 C CNN
F 3 "" H 8250 1700 50  0001 C CNN
	1    8250 1700
	1    0    0    -1  
$EndComp
Wire Wire Line
	7400 5250 7500 5250
Wire Wire Line
	7300 5250 7400 5250
Connection ~ 7400 5250
Wire Wire Line
	8200 5250 8300 5250
Connection ~ 8200 5250
Connection ~ 7300 5250
Wire Wire Line
	8100 5250 8200 5250
Connection ~ 8100 5250
Wire Wire Line
	8000 5250 8100 5250
Connection ~ 8000 5250
Wire Wire Line
	7800 2250 7850 2250
Wire Wire Line
	7700 2250 7800 2250
Connection ~ 7800 2250
Wire Wire Line
	7900 5250 8000 5250
Connection ~ 7900 5250
Wire Wire Line
	7800 5250 7900 5250
Connection ~ 7800 5250
Wire Wire Line
	7700 5250 7800 5250
Wire Wire Line
	7600 5250 7700 5250
Connection ~ 7700 5250
Connection ~ 7600 5250
$Comp
L Interface_USB:FT232H U10
U 1 1 5D4A8B65
P 7700 3750
F 0 "U10" H 8600 5200 50  0000 C CNN
F 1 "FT232H" H 8600 5100 50  0000 C CNN
F 2 "Package_QFP:LQFP-48_7x7mm_P0.5mm" H 7700 3750 50  0001 C CNN
F 3 "http://www.ftdichip.com/Products/ICs/FT232H.htm" H 7700 3750 50  0001 C CNN
	1    7700 3750
	1    0    0    -1  
$EndComp
Wire Wire Line
	7700 2250 7600 2250
Connection ~ 7700 2250
Connection ~ 7600 2250
Wire Wire Line
	7600 2250 7550 2250
$Comp
L Device:C_Small C47
U 1 1 5E0A10E0
P 8000 1900
F 0 "C47" V 8050 1950 50  0000 L CNN
F 1 "0.1u" V 8050 1700 50  0000 L CNN
F 2 "Capacitor_SMD:C_0603_1608Metric" H 8000 1900 50  0001 C CNN
F 3 "~" H 8000 1900 50  0001 C CNN
	1    8000 1900
	1    0    0    -1  
$EndComp
$Comp
L Device:C_Small C46
U 1 1 5E0AA306
P 7850 1900
F 0 "C46" V 7900 1950 50  0000 L CNN
F 1 "0.1u" V 7900 1700 50  0000 L CNN
F 2 "Capacitor_SMD:C_0603_1608Metric" H 7850 1900 50  0001 C CNN
F 3 "~" H 7850 1900 50  0001 C CNN
	1    7850 1900
	1    0    0    -1  
$EndComp
$Comp
L Device:C_Small C45
U 1 1 5E0AEA01
P 7700 1900
F 0 "C45" V 7750 1950 50  0000 L CNN
F 1 "0.1u" V 7750 1700 50  0000 L CNN
F 2 "Capacitor_SMD:C_0603_1608Metric" H 7700 1900 50  0001 C CNN
F 3 "~" H 7700 1900 50  0001 C CNN
	1    7700 1900
	1    0    0    -1  
$EndComp
$Comp
L Device:C_Small C44
U 1 1 5E0AEDCD
P 7550 1900
F 0 "C44" V 7600 1950 50  0000 L CNN
F 1 "0.1u" V 7600 1700 50  0000 L CNN
F 2 "Capacitor_SMD:C_0603_1608Metric" H 7550 1900 50  0001 C CNN
F 3 "~" H 7550 1900 50  0001 C CNN
	1    7550 1900
	1    0    0    -1  
$EndComp
$Comp
L Device:C_Small C43
U 1 1 5E0AFE9C
P 7400 1900
F 0 "C43" V 7450 1950 50  0000 L CNN
F 1 "0.1u" V 7450 1700 50  0000 L CNN
F 2 "Capacitor_SMD:C_0603_1608Metric" H 7400 1900 50  0001 C CNN
F 3 "~" H 7400 1900 50  0001 C CNN
	1    7400 1900
	1    0    0    -1  
$EndComp
Wire Wire Line
	7500 2250 7400 2250
Wire Wire Line
	7400 2250 7400 2000
Connection ~ 7500 2250
Wire Wire Line
	7550 2250 7550 2000
Connection ~ 7550 2250
Wire Wire Line
	7550 2250 7500 2250
Wire Wire Line
	7700 2250 7700 2000
Wire Wire Line
	7850 2250 7850 2000
Connection ~ 7850 2250
Wire Wire Line
	7850 2250 7900 2250
Wire Wire Line
	7900 2250 8000 2250
Wire Wire Line
	8000 2250 8000 2000
Connection ~ 7900 2250
Wire Wire Line
	8250 1700 8000 1700
Wire Wire Line
	7400 1700 7400 1800
Wire Wire Line
	7550 1800 7550 1700
Connection ~ 7550 1700
Wire Wire Line
	7550 1700 7400 1700
Wire Wire Line
	7700 1800 7700 1700
Connection ~ 7700 1700
Wire Wire Line
	7700 1700 7550 1700
Wire Wire Line
	7850 1800 7850 1700
Connection ~ 7850 1700
Wire Wire Line
	7850 1700 7700 1700
Wire Wire Line
	8000 1800 8000 1700
Connection ~ 8000 1700
Wire Wire Line
	8000 1700 7850 1700
Wire Wire Line
	6800 2500 6800 2550
Connection ~ 6800 2550
$Comp
L Device:C_Small C39
U 1 1 5E0E6CB5
P 6550 2550
F 0 "C39" V 6600 2600 50  0000 L CNN
F 1 "0.1u" V 6600 2350 50  0000 L CNN
F 2 "Capacitor_SMD:C_0603_1608Metric" H 6550 2550 50  0001 C CNN
F 3 "~" H 6550 2550 50  0001 C CNN
	1    6550 2550
	0    1    1    0   
$EndComp
$Comp
L Device:C_Small C40
U 1 1 5E0E74A5
P 6550 2700
F 0 "C40" V 6600 2750 50  0000 L CNN
F 1 "0.1u" V 6600 2500 50  0000 L CNN
F 2 "Capacitor_SMD:C_0603_1608Metric" H 6550 2700 50  0001 C CNN
F 3 "~" H 6550 2700 50  0001 C CNN
	1    6550 2700
	0    1    1    0   
$EndComp
$Comp
L Device:C_Small C41
U 1 1 5E0E7839
P 6550 2850
F 0 "C41" V 6600 2900 50  0000 L CNN
F 1 "0.1u" V 6600 2650 50  0000 L CNN
F 2 "Capacitor_SMD:C_0603_1608Metric" H 6550 2850 50  0001 C CNN
F 3 "~" H 6550 2850 50  0001 C CNN
	1    6550 2850
	0    1    1    0   
$EndComp
$Comp
L Device:C_Small C42
U 1 1 5E0E7B4D
P 6550 3000
F 0 "C42" V 6600 3050 50  0000 L CNN
F 1 "0.1u" V 6600 2800 50  0000 L CNN
F 2 "Capacitor_SMD:C_0603_1608Metric" H 6550 3000 50  0001 C CNN
F 3 "~" H 6550 3000 50  0001 C CNN
	1    6550 3000
	0    1    1    0   
$EndComp
Wire Wire Line
	6650 3000 6800 3000
Wire Wire Line
	6800 3000 6800 2950
Wire Wire Line
	6800 2850 6650 2850
Wire Wire Line
	6800 2700 6650 2700
Connection ~ 6800 2700
Wire Wire Line
	6800 2700 6800 2750
Wire Wire Line
	6800 2550 6650 2550
Wire Wire Line
	6450 3000 6250 3000
Wire Wire Line
	6450 2550 6250 2550
Wire Wire Line
	6250 2550 6250 2700
Connection ~ 6250 3000
Wire Wire Line
	6450 2850 6250 2850
Connection ~ 6250 2850
Wire Wire Line
	6250 2850 6250 3000
Wire Wire Line
	6450 2700 6250 2700
Connection ~ 6250 2700
Wire Wire Line
	6250 2700 6250 2850
$Comp
L Memory_EEPROM:93CxxB U8
U 1 1 5E0861BE
P 3850 5900
F 0 "U8" H 3650 6150 50  0000 C CNN
F 1 "93C46B" H 4050 6150 50  0000 C CNN
F 2 "Package_SO:SOIC-8_3.9x4.9mm_P1.27mm" H 3850 5900 50  0001 C CNN
F 3 "http://ww1.microchip.com/downloads/en/DeviceDoc/20001749K.pdf" H 3850 5900 50  0001 C CNN
	1    3850 5900
	1    0    0    -1  
$EndComp
Text GLabel 6800 3950 0    50   Input ~ 0
EECLK
Text GLabel 4250 5800 2    50   Input ~ 0
EECLK
Text GLabel 6800 3850 0    50   Input ~ 0
EECS
Text GLabel 6800 4050 0    50   Input ~ 0
EEDATA
Text GLabel 4550 5900 2    50   Input ~ 0
EEDATA
$Comp
L Device:R_Small R16
U 1 1 5E098F6D
P 4400 6000
F 0 "R16" V 4500 5900 50  0000 C CNN
F 1 "2k" V 4500 6100 50  0000 C CNN
F 2 "Resistor_SMD:R_0603_1608Metric" H 4400 6000 50  0001 C CNN
F 3 "~" H 4400 6000 50  0001 C CNN
	1    4400 6000
	0    1    1    0   
$EndComp
Wire Wire Line
	4500 6000 4550 6000
Wire Wire Line
	4550 6000 4550 5900
Wire Wire Line
	4550 5900 4250 5900
Wire Wire Line
	4300 6000 4250 6000
Text GLabel 3450 5800 0    50   Input ~ 0
EECS
Text GLabel 3850 5450 1    50   Input ~ 0
3V3
$Comp
L Device:C_Small C38
U 1 1 5E0B1214
P 3650 5550
F 0 "C38" V 3700 5600 50  0000 L CNN
F 1 "0.1u" V 3700 5350 50  0000 L CNN
F 2 "Capacitor_SMD:C_0603_1608Metric" H 3650 5550 50  0001 C CNN
F 3 "~" H 3650 5550 50  0001 C CNN
	1    3650 5550
	0    -1   -1   0   
$EndComp
Wire Wire Line
	3850 5450 3850 5550
Wire Wire Line
	3850 5550 3750 5550
Connection ~ 3850 5550
Wire Wire Line
	3850 5550 3850 5600
$Comp
L power:GND #PWR038
U 1 1 5E0B75F9
P 3550 5550
F 0 "#PWR038" H 3550 5300 50  0001 C CNN
F 1 "GND" V 3555 5422 50  0000 R CNN
F 2 "" H 3550 5550 50  0001 C CNN
F 3 "" H 3550 5550 50  0001 C CNN
	1    3550 5550
	0    1    1    0   
$EndComp
$Comp
L power:GND #PWR039
U 1 1 5E0B7AFE
P 3850 6200
F 0 "#PWR039" H 3850 5950 50  0001 C CNN
F 1 "GND" V 3855 6072 50  0000 R CNN
F 2 "" H 3850 6200 50  0001 C CNN
F 3 "" H 3850 6200 50  0001 C CNN
	1    3850 6200
	1    0    0    -1  
$EndComp
Text GLabel 3650 6750 0    50   Input ~ 0
EEDATA
Text GLabel 4050 6750 2    50   Input ~ 0
3V3
Text GLabel 3650 6550 0    50   Input ~ 0
EECS
Text GLabel 3650 6950 0    50   Input ~ 0
EEDATA
$Comp
L Device:R_Small R13
U 1 1 5E0CC419
P 3850 6550
F 0 "R13" V 3950 6600 50  0000 C CNN
F 1 "10k" V 3950 6450 50  0000 C CNN
F 2 "Resistor_SMD:R_0603_1608Metric" H 3850 6550 50  0001 C CNN
F 3 "~" H 3850 6550 50  0001 C CNN
	1    3850 6550
	0    1    1    0   
$EndComp
Wire Wire Line
	3650 6550 3750 6550
Wire Wire Line
	3950 6550 4050 6550
Wire Wire Line
	4050 6950 3950 6950
Wire Wire Line
	4050 6550 4050 6750
Wire Wire Line
	3750 6950 3650 6950
Wire Wire Line
	3650 6750 3750 6750
Wire Wire Line
	3950 6750 4050 6750
Connection ~ 4050 6750
Wire Wire Line
	4050 6750 4050 6950
$Comp
L Device:R_Small R14
U 1 1 5E0DE868
P 3850 6750
F 0 "R14" V 3950 6800 50  0000 C CNN
F 1 "10k" V 3950 6650 50  0000 C CNN
F 2 "Resistor_SMD:R_0603_1608Metric" H 3850 6750 50  0001 C CNN
F 3 "~" H 3850 6750 50  0001 C CNN
	1    3850 6750
	0    1    1    0   
$EndComp
$Comp
L Device:R_Small R15
U 1 1 5E0DEAD6
P 3850 6950
F 0 "R15" V 3950 7000 50  0000 C CNN
F 1 "10k" V 3950 6850 50  0000 C CNN
F 2 "Resistor_SMD:R_0603_1608Metric" H 3850 6950 50  0001 C CNN
F 3 "~" H 3850 6950 50  0001 C CNN
	1    3850 6950
	0    1    1    0   
$EndComp
Wire Notes Line
	2800 5150 4950 5150
Wire Notes Line
	4950 5150 4950 7300
Wire Notes Line
	4950 7300 2800 7300
Wire Notes Line
	2800 7300 2800 5150
Text Notes 2850 5300 0    50   ~ 0
EEPROM
Wire Notes Line
	3300 750  5450 750 
Wire Notes Line
	5450 750  5450 2500
Wire Notes Line
	5450 2500 3300 2500
Wire Notes Line
	3300 2500 3300 750 
Text Notes 3350 850  0    50   ~ 0
Flash
$Comp
L Device:C_Small C37
U 1 1 5E11359A
P 3600 1650
F 0 "C37" V 3650 1700 50  0000 L CNN
F 1 "0.1u" V 3650 1450 50  0000 L CNN
F 2 "Capacitor_SMD:C_0603_1608Metric" H 3600 1650 50  0001 C CNN
F 3 "~" H 3600 1650 50  0001 C CNN
	1    3600 1650
	0    1    1    0   
$EndComp
Wire Wire Line
	3400 1650 3500 1650
Connection ~ 1850 1700
Wire Wire Line
	1100 2100 1100 2150
Wire Wire Line
	1100 1900 1100 1850
Text GLabel 1550 4650 1    50   Input ~ 0
3V3
Wire Wire Line
	2050 5350 1800 5350
$Comp
L power:GND #PWR036
U 1 1 5E17A73F
P 2050 5350
F 0 "#PWR036" H 2050 5100 50  0001 C CNN
F 1 "GND" H 2055 5177 50  0000 C CNN
F 2 "" H 2050 5350 50  0001 C CNN
F 3 "" H 2050 5350 50  0001 C CNN
	1    2050 5350
	1    0    0    -1  
$EndComp
Wire Wire Line
	1600 5350 1550 5350
Wire Wire Line
	1550 5350 1550 5050
Connection ~ 1550 5050
Wire Wire Line
	1600 5050 1550 5050
Wire Wire Line
	1550 5050 1550 4750
Wire Wire Line
	1550 4750 1550 4650
Connection ~ 1550 4750
Wire Wire Line
	1600 4750 1550 4750
Connection ~ 1550 5350
Wire Wire Line
	1550 5400 1550 5350
$Comp
L Device:C_Small C33
U 1 1 5E17A74F
P 1700 5350
F 0 "C33" V 1500 5350 50  0000 C CNN
F 1 "10n" V 1600 5350 50  0000 C CNN
F 2 "Capacitor_SMD:C_0603_1608Metric" H 1738 5200 50  0001 C CNN
F 3 "~" H 1700 5350 50  0001 C CNN
	1    1700 5350
	0    1    1    0   
$EndComp
Wire Wire Line
	1800 5050 1800 5350
Wire Wire Line
	1800 4750 1800 5050
Connection ~ 1800 5050
$Comp
L Device:C_Small C32
U 1 1 5E17A758
P 1700 5050
F 0 "C32" V 1500 5050 50  0000 C CNN
F 1 "0.1u" V 1600 5050 50  0000 C CNN
F 2 "Capacitor_SMD:C_0603_1608Metric" H 1738 4900 50  0001 C CNN
F 3 "~" H 1700 5050 50  0001 C CNN
	1    1700 5050
	0    1    1    0   
$EndComp
$Comp
L Device:C_Small C31
U 1 1 5E17A75E
P 1700 4750
F 0 "C31" V 1500 4750 50  0000 C CNN
F 1 "1u" V 1600 4750 50  0000 C CNN
F 2 "Capacitor_SMD:C_0603_1608Metric" H 1738 4600 50  0001 C CNN
F 3 "~" H 1700 4750 50  0001 C CNN
	1    1700 4750
	0    1    1    0   
$EndComp
Connection ~ 1800 5350
$Comp
L power:GND #PWR0101
U 1 1 5E1BA4C5
P 6800 4850
F 0 "#PWR0101" H 6800 4600 50  0001 C CNN
F 1 "GND" V 6805 4722 50  0000 R CNN
F 2 "" H 6800 4850 50  0001 C CNN
F 3 "" H 6800 4850 50  0001 C CNN
	1    6800 4850
	1    0    0    -1  
$EndComp
$Comp
L Device:Crystal Y1
U 1 1 5E24CE8C
P 6525 4450
F 0 "Y1" V 6479 4581 50  0000 L CNN
F 1 "12MHz" V 6570 4581 50  0000 L CNN
F 2 "Crystal:Crystal_HC49-4H_Vertical" H 6525 4450 50  0001 C CNN
F 3 "http://www.raltron.com/wp-content/uploads/2016/12/AS-SERIES.pdf" H 6525 4450 50  0001 C CNN
	1    6525 4450
	0    1    1    0   
$EndComp
Wire Wire Line
	6800 4250 6525 4250
Wire Wire Line
	6525 4650 6800 4650
Wire Wire Line
	6525 4250 6525 4300
$Comp
L Device:C_Small C8
U 1 1 5E2617B1
P 6325 4250
F 0 "C8" V 6375 4300 50  0000 L CNN
F 1 "27p" V 6375 4050 50  0000 L CNN
F 2 "Capacitor_SMD:C_0603_1608Metric" H 6325 4250 50  0001 C CNN
F 3 "~" H 6325 4250 50  0001 C CNN
	1    6325 4250
	0    1    1    0   
$EndComp
$Comp
L Device:C_Small C23
U 1 1 5E263450
P 6325 4650
F 0 "C23" V 6375 4700 50  0000 L CNN
F 1 "27p" V 6375 4450 50  0000 L CNN
F 2 "Capacitor_SMD:C_0603_1608Metric" H 6325 4650 50  0001 C CNN
F 3 "~" H 6325 4650 50  0001 C CNN
	1    6325 4650
	0    1    1    0   
$EndComp
Wire Wire Line
	6425 4250 6525 4250
Connection ~ 6525 4250
Wire Wire Line
	6525 4600 6525 4650
Wire Wire Line
	6525 4650 6425 4650
Connection ~ 6525 4650
$Comp
L power:GND #PWR0102
U 1 1 5E271B43
P 6075 4725
F 0 "#PWR0102" H 6075 4475 50  0001 C CNN
F 1 "GND" V 6080 4597 50  0000 R CNN
F 2 "" H 6075 4725 50  0001 C CNN
F 3 "" H 6075 4725 50  0001 C CNN
	1    6075 4725
	1    0    0    -1  
$EndComp
Wire Wire Line
	6075 4725 6075 4650
Wire Wire Line
	6075 4650 6225 4650
Wire Wire Line
	6075 4650 6075 4250
Wire Wire Line
	6075 4250 6225 4250
Connection ~ 6075 4650
Text GLabel 4350 3800 2    50   Input ~ 0
USB_D-
Text GLabel 4350 3700 2    50   Input ~ 0
USB_D+
$Comp
L power:GND #PWR0103
U 1 1 5E292C5A
P 4350 3500
F 0 "#PWR0103" H 4350 3250 50  0001 C CNN
F 1 "GND" V 4355 3372 50  0000 R CNN
F 2 "" H 4350 3500 50  0001 C CNN
F 3 "" H 4350 3500 50  0001 C CNN
	1    4350 3500
	0    -1   -1   0   
$EndComp
Wire Wire Line
	8100 2250 8000 2250
Connection ~ 8000 2250
NoConn ~ 8600 2950
NoConn ~ 8600 3050
NoConn ~ 8600 4250
NoConn ~ 8600 4350
NoConn ~ 1100 2450
NoConn ~ 1100 2550
NoConn ~ 1100 2650
NoConn ~ 1100 2750
NoConn ~ 1100 2950
NoConn ~ 1100 3150
NoConn ~ 1100 3250
NoConn ~ 1100 3350
NoConn ~ 4350 3600
NoConn ~ 4350 3900
$Comp
L Connector:TestPoint TP6
U 1 1 5F0237C7
P 2250 4000
F 0 "TP6" V 2425 4125 50  0000 R CNN
F 1 "CDONE" V 2325 4175 50  0000 R CNN
F 2 "TestPoint:TestPoint_THTPad_D2.5mm_Drill1.2mm" H 2450 4000 50  0001 C CNN
F 3 "~" H 2450 4000 50  0001 C CNN
	1    2250 4000
	0    -1   -1   0   
$EndComp
Text GLabel 2250 4000 2    50   Input ~ 0
FPGA_RSTN
$EndSCHEMATC
